…
Convert to tidy text format: `unnest_token`
-------------------------------------------

The main `tidytext` ðŸ“¦ function which will do this for us is `unnest_token`. Let's look at a quick example to see how it works!

**Create one-token-per-row data frame**

``` r
> all_tweets %>% filter(!duplicated(all_tweets)) %>% mutate(tweetID = X1) %>% 
+     unnest_tokens(output = word, input = text, token = "words") %>% select(tweetID, 
+     word) %>% count(word)
```

    ## # A tibble: 57,332 x 2
    ##    word                                      n
    ##    <chr>                                 <int>
    ##  1 ____                                      3
    ##  2 _____                                     1
    ##  3 ______________                           12
    ##  4 ___________________                       1
    ##  5 _____________________                     3
    ##  6 _____________________________________     1
    ##  7 ___fittaymuu                              2
    ##  8 ___mkc___                                 5
    ##  9 ___q__                                    1
    ## 10 __christan                                3
    ## # ... with 57,322 more rows

There is a lot of useless text in here ðŸ¤¢ !!

**Create one-token-per-row where token are two consecutive words**

``` r
> all_tweets %>% filter(!duplicated(all_tweets)) %>% mutate(tweetID = X1) %>% 
+     unnest_tokens(output = word, input = text, token = "ngrams", n = 2) %>% 
+     select(tweetID, word)
```

    ## # A tibble: 1,801,795 x 2
    ##    tweetID word                         
    ##      <int> <chr>                        
    ##  1       1 akaov_ but                   
    ##  2       1 but there                    
    ##  3       1 there was                    
    ##  4       1 was a                        
    ##  5       1 a royalwedding               
    ##  6       1 foreignoffice antonioguterres
    ##  7       1 antonioguterres borisjohnson 
    ##  8       1 borisjohnson un              
    ##  9       1 un royalfamily               
    ## 10       1 royalfamily ukparliament     
    ## # ... with 1,801,785 more rows
…
