…
The main `tidytext` ðŸ“¦ function which will do this for us is `unnest_token`. Let's look at a quick example to see how it works!

**Create one-token-per-row data frame**

``` r
> all_tweets %>%
+   filter(!duplicated(all_tweets)) %>% # remove duplicated tweets
+   mutate(tweetID = 1:n()) %>% # set a TweetID column, X1 was too generic
+   select(-X1) %>%
+   unnest_tokens(output = word, input = text, token = "words") %>% # convert tweet in the text column to token = words
+   select(tweetID,word) %>%
+   count(word)
```

    ## # A tibble: 57,332 x 2
    ##    word                                      n
    ##    <chr>                                 <int>
    ##  1 ____                                      3
    ##  2 _____                                     1
    ##  3 ______________                           12
    ##  4 ___________________                       1
    ##  5 _____________________                     3
    ##  6 _____________________________________     1
    ##  7 ___fittaymuu                              2
    ##  8 ___mkc___                                 5
    ##  9 ___q__                                    1
    ## 10 __christan                                3
    ## # ... with 57,322 more rows

There is a lot of useless text in here ðŸ˜± !!

**Create one-token-per-row where token are two consecutive words**

``` r
> all_tweets %>% filter(!duplicated(all_tweets)) %>% mutate(tweetID = 1:n()) %>% 
+     select(-X1) %>% unnest_tokens(output = word, input = text, token = "ngrams", 
+     n = 2) %>% select(tweetID, word)
```

    ## # A tibble: 1,801,795 x 2
    ##    tweetID word       
    ##      <int> <chr>      
    ##  1   72068 _ajayv omg 
    ##  2   72068 omg the    
    ##  3   72068 the wedding
    ##  4   72068 wedding in 
    ##  5   72068 in this    
    ##  6   72068 this video 
    ##  7   72068 video was  
    ##  8   72068 was better 
    ##  9   72068 better than
    ## 10   72068 than the   
    ## # ... with 1,801,785 more rows
Looks better but we will do some more tweaks to make it more usable later!

------------------------------------------------------------------------

With the code below, we first create a new column `retweet_from` in the data frame `all_tweets` using `mutate(RT = str_extract(string = text,pattern = "^RT @(\\w+)"))`. In each row, this column will contain the Twitter handle of the user that was retweeted. This is accomplished by using the `str_extract` function from the `stringr` ðŸ“¦ which extract the pattern "RT @user\_handle" from every retweet (in regular expression form `^RT @(\\w+)`). Finally, `mutate(RT = str_replace_all(RT,"^RT ",""))` will replace every `RT` occurence with nothing so that only the user handle is left in the `retweet_from`column.

``` r
> reg_retweets <- "^RT @(\\w+)"
> all_tweets <- all_tweets %>% mutate(tweetID = 1:n()) %>% select(-X1) %>% mutate(retweet_from = str_extract(text, 
+     reg_retweets)) %>% mutate(retweet_from = str_replace_all(retweet_from, "^RT ", 
+     ""))
> all_tweets[, c("tweetID", "retweet_from", "isRetweet")]
```

    ## # A tibble: 75,000 x 3
    ##    tweetID retweet_from     isRetweet
    ##      <int> <chr>            <lgl>    
    ##  1       1 @acpfonline      TRUE     
    ##  2       2 @esricanada      TRUE     
    ##  3       3 @chrisshipitv    TRUE     
    ##  4       4 <NA>             FALSE    
    ##  5       5 <NA>             FALSE    
    ##  6       6 <NA>             FALSE    
    ##  7       7 @chrisshipitv    TRUE     
    ##  8       8 @chrisshipitv    TRUE     
    ##  9       9 @Raine_Miller    TRUE     
    ## 10      10 @Nova_Magazine17 TRUE     
    ## # ... with 74,990 more rows
…
``` r
> sort(table(chogm$retweet_from))
```

    ## 
    ## @AlexDEMitchell      @hannarrr_   @PScotlandCSG  @mmarklefancom 
    ##               1               1               1               2 
    ##        @The_ACU         @PlanUK    @RoyalDickie   @RE_DailyMail 
    ##               2               3               3             103

``` r
> chogm[chogm$retweet_from %in% "@RE_DailyMail", c("tweetID")]
```

    ## # A tibble: 103 x 1
    ##    tweetID
    ##      <int>
    ##  1   17515
    ##  2   17041
    ##  3   16333
    ##  4   16332
    ##  5   16328
    ##  6   16327
    ##  7   16326
    ##  8   16323
    ##  9   16321
    ## 10   16319
    ## # ... with 93 more rows
…
